[
  {
    "identifier": "Blackx",
    "name": "Blackx",
    "txnViolationConfigs": null,
    "tags": [
      {
        "identifier": "(GMT+05:30) Chennai, Kolkata, Mumbai, New Delhi",
        "subTypeName": "Account",
        "name": "Timezone"
      },
      {
        "identifier": "go-hello-world",
        "subTypeName": "Services",
        "layer": "app_service",
        "name": "Controller"
      },
      {
        "identifier": "java-hello-world",
        "subTypeName": "Services",
        "layer": "app_service",
        "name": "Controller"
      },
      {
        "identifier": "node-hello-world",
        "subTypeName": "Services",
        "layer": "app_service",
        "name": "Controller"
      },
      {
        "identifier": "python-hello-world",
        "subTypeName": "Services",
        "layer": "app_service",
        "name": "Controller"
      },
      {
        "identifier": "mynginx",
        "subTypeName": "Services",
        "layer": "db_service",
        "name": "Controller"
      }
    ]
  }
]
