[
  {
    "name": "mynginx",
    "identifier": "mynginx",
    "clusterName": "NGINX_Container_Cluster",
    "mstComponentVersion": "1.17.7",
    "mstComponentName": "NGINX Container",
    "mstComponentType": "Services",
    "mappingIdentifiers": ["mynginx-8bcf77674-l7lnq"],
    "discovery": 1,
    "tags": [
      {
        "name": "Controller",
        "identifier": "mynginx",
        "subTypeName": "Services"
      },
      {
        "name": "Controller",
        "identifier": "Blackx",
        "subTypeName": "Application"
      }
    ],
    "attributes": [
      {
        "name": "HostAddress",
        "value": "10.32.0.37"
      },
      {
        "name": "Name",
        "value": "mynginx"
      },
      {
        "name": "Uuid",
        "value": "b7637a4429a5cd93349478277817fa30c709fcc624e963968b44423dc0dc13f8;<container>"
      },
      {
        "name": "RestartCount",
        "value": "0"
      },
      {
        "name": "Created",
        "value": "2020-02-01T09:18:20.149768464Z"
      }
    ],
    "groupKpi": null
  }
]
