{
  "componentName": "NGINX Container",
  "type": "Services",
  "commonVersion": "1.x",
  "version": "1.17.7",
  "description": "NGINX Web Server Container",
  "attributes": [
    {
      "name": "Name",
      "type": "TextBox",
      "defaultValue": "",
      "mandatory": true,
      "maxLength": 255,
      "minLength": 1,
      "regex": ""
    },
    {
      "name": "Uuid",
      "type": "TextBox",
      "defaultValue": "",
      "mandatory": true,
      "maxLength": 255,
      "minLength": 1,
      "regex": ""
    },
    {
      "name": "HostAddress",
      "type": "TextBox",
      "defaultValue": "",
      "mandatory": true,
      "maxLength": 255,
      "minLength": 1,
      "regex": ""
    },
    {
      "name": "RestartCount",
      "type": "TextBox",
      "defaultValue": "",
      "mandatory": false,
      "maxLength": 32,
      "minLength": 1,
      "regex": ""
    },
    {
      "name": "Created",
      "type": "TextBox",
      "defaultValue": "",
      "mandatory": false,
      "maxLength": 64,
      "minLength": 1,
      "regex": ""
    },
    {
      "name": "Uptime",
      "type": "TextBox",
      "defaultValue": "",
      "mandatory": false,
      "maxLength": 64,
      "minLength": 1,
      "regex": ""
    },
    {
      "name": "Image",
      "type": "TextBox",
      "defaultValue": "",
      "mandatory": false,
      "maxLength": 255,
      "minLength": 1,
      "regex": ""
    }
  ]
}
