{
  "componentName": "Node JS Container",
  "type": "Services",
  "commonVersion": "13.x",
  "version": "13.7.0",
  "description": "Node JS Application Container",
  "attributes": [
    {
      "name": "Name",
      "type": "TextBox",
      "defaultValue": "",
      "mandatory": true,
      "maxLength": 255,
      "minLength": 1,
      "regex": ""
    },
    {
      "name": "Uuid",
      "type": "TextBox",
      "defaultValue": "",
      "mandatory": true,
      "maxLength": 255,
      "minLength": 1,
      "regex": ""
    },
    {
      "name": "HostAddress",
      "type": "TextBox",
      "defaultValue": "",
      "mandatory": true,
      "maxLength": 255,
      "minLength": 1,
      "regex": ""
    },
    {
      "name": "RestartCount",
      "type": "TextBox",
      "defaultValue": "",
      "mandatory": false,
      "maxLength": 32,
      "minLength": 1,
      "regex": ""
    },
    {
      "name": "Created",
      "type": "TextBox",
      "defaultValue": "",
      "mandatory": false,
      "maxLength": 64,
      "minLength": 1,
      "regex": ""
    },
    {
      "name": "Uptime",
      "type": "TextBox",
      "defaultValue": "",
      "mandatory": false,
      "maxLength": 64,
      "minLength": 1,
      "regex": ""
    },
    {
      "name": "Image",
      "type": "TextBox",
      "defaultValue": "",
      "mandatory": false,
      "maxLength": 255,
      "minLength": 1,
      "regex": ""
    }
  ]
}
