{
  "accountName": "GCP-DEMO2",
  "status": 1,
  "identifier": "1234567890",
  "tags": [
    {
      "identifier": "(GMT+05:30) Chennai, Kolkata, Mumbai, New Delhi",
      "name": "Timezone"
    }
  ]
}
