[
  {
    "name": "go-hello-world-794cf47fbb-8gnwb",
    "identifier": "go-hello-world-794cf47fbb-8gnwb",
    "clusterName": "POD_Cluster-go-hello-world",
    "mstComponentVersion": "1.13",
    "mstComponentName": "Pod",
    "mstComponentType": "Host",
    "discovery": 1,
    "tags": [
      {
        "name": "Controller",
        "identifier": "go-hello-world",
        "subTypeName": "Services"
      },
      {
        "name": "Controller",
        "identifier": "Blackx",
        "subTypeName": "Application"
      }
    ],
    "attributes": [
      {
        "name": "HostAddress",
        "value": "10.32.0.48"
      },
      {
        "name": "Name",
        "value": "go-hello-world-794cf47fbb-8gnwb"
      },
      {
        "name": "Uuid",
        "value": "5a8ca429-3bb3-11ea-a85a-42010aa0007e;<pod>"
      },
      {
        "name": "State",
        "value": "Running"
      },
      {
        "name": "Containers Count",
        "value": "1"
      },
      {
        "name": "Namespace",
        "value": "default"
      },
      {
        "name": "Created",
        "value": "2020-01-20T18:33:29Z"
      }
    ],
    "groupKpi": null
  }
]
